[
  {
     "label":"[0.0\u00b0F, 10\u00b0F)",
     "value":426
  },
  {
     "label":"[10.0\u00b0F, 20\u00b0F)",
     "value":1046
  },
  {
     "label":"[20.0\u00b0F, 30\u00b0F)",
     "value":1364
  },
  {
     "label":"[30.0\u00b0F, 40\u00b0F)",
     "value":13
  },
  {
     "label":"[40.0\u00b0F, 50\u00b0F)",
     "value":24
  },
  {
     "label":"[50.0\u00b0F, 60\u00b0F)",
     "value":20
  },
  {
     "label":"[60.0\u00b0F, 70\u00b0F)",
     "value":19
  },
  {
     "label":"[70.0\u00b0F, 80\u00b0F)",
     "value":22
  },
  {
     "label":"[80.0\u00b0F, 90\u00b0F)",
     "value":17
  }
]