[
  {
     "country":"Qatar",
     "emissions":37.96653291372538
  },
  {
     "country":"Trinidad and Tobago",
     "emissions":31.27851855955225
  },
  {
     "country":"Kuwait",
     "emissions":23.70361783534803
  },
  {
     "country":"United Arab Emirates",
     "emissions":21.347972844945808
  },
  {
     "country":"New Caledonia",
     "emissions":20.559080064464585
  },
  {
     "country":"Bahrain",
     "emissions":19.795379121999023
  },
  {
     "country":"Brunei",
     "emissions":18.48369728
  },
  {
     "country":"Saudi Arabia",
     "emissions":18.434622245072717
  },
  {
     "country":"Kazakhstan",
     "emissions":17.56478182059321
  },
  {
     "country":"Australia",
     "emissions":16.877695238710345
  },
  {
     "country":"United States",
     "emissions":16.558679664323854
  },
  {
     "country":"Luxembourg",
     "emissions":15.863719913098796
  },
  {
     "country":"Saint Pierre and Miquelon",
     "emissions":15.33141518
  },
  {
     "country":"Canada",
     "emissions":15.33141517858052
  },
  {
     "country":"Estonia",
     "emissions":14.783869868717535
  },
  {
     "country":"Oman",
     "emissions":13.93478565775504
  },
  {
     "country":"Turkmenistan",
     "emissions":13.654702157750151
  },
  {
     "country":"Palau",
     "emissions":13.099217606561108
  },
  {
     "country":"Iceland",
     "emissions":10.773324882441118
  },
  {
     "country":"Czech Republic",
     "emissions":9.932975212688957
  },
  {
     "country":"Bermuda",
     "emissions":9.867849293911405
  },
  {
     "country":"Netherlands",
     "emissions":9.473854653791745
  },
  {
     "country":"Japan",
     "emissions":9.134928103311148
  },
  {
     "country":"Germany",
     "emissions":9.130960322189397
  },
  {
     "country":"Poland",
     "emissions":9.059067734881962
  },
  {
     "country":"Greenland",
     "emissions":8.971542516641001
  },
  {
     "country":"Cayman Islands",
     "emissions":8.889704918032788
  },
  {
     "country":"Mongolia",
     "emissions":8.868372741246567
  },
  {
     "country":"Belgium",
     "emissions":8.680126474865046
  },
  {
     "country":"Finland",
     "emissions":8.507890447308046
  },
  {
     "country":"Aruba",
     "emissions":8.463651329197651
  },
  {
     "country":"Curacao",
     "emissions":8.463651329
  },
  {
     "country":"Norway",
     "emissions":8.303918336644474
  },
  {
     "country":"South Africa",
     "emissions":8.090290042510969
  },
  {
     "country":"Libya",
     "emissions":8.087389400608046
  },
  {
     "country":"Ireland",
     "emissions":8.078671169673767
  },
  {
     "country":"Malaysia",
     "emissions":8.073031541488215
  },
  {
     "country":"Austria",
     "emissions":7.746022465906321
  },
  {
     "country":"Israel",
     "emissions":7.666879555614273
  },
  {
     "country":"New Zealand",
     "emissions":7.329914479039798
  },
  {
     "country":"British Virgin Islands",
     "emissions":7.197030203583287
  },
  {
     "country":"Singapore",
     "emissions":7.096495091076375
  },
  {
     "country":"China",
     "emissions":7.0498370033349325
  },
  {
     "country":"Greece",
     "emissions":7.022126794425618
  },
  {
     "country":"Slovenia",
     "emissions":6.94503274492473
  },
  {
     "country":"Belarus",
     "emissions":6.924370593319992
  },
  {
     "country":"Seychelles",
     "emissions":6.755094421589919
  },
  {
     "country":"Bosnia and Herzegovina",
     "emissions":6.5199458432741855
  },
  {
     "country":"Bulgaria",
     "emissions":6.311851950770211
  },
  {
     "country":"Cyprus",
     "emissions":6.2999334289560975
  }
]