[
  {
     "label":"DE",
     "value":"83"
  },
  {
     "label":"MT",
     "value":"106"
  },
  {
     "label":"SC",
     "value":"451"
  },
  {
     "label":"NY",
     "value":"2167"
  },
  {
     "label":"AZ",
     "value":"786"
  },
  {
     "label":"VA",
     "value":"992"
  },
  {
     "label":"CT",
     "value":"501"
  },
  {
     "label":"WA",
     "value":"1372"
  },
  {
     "label":"UT",
     "value":"519"
  },
  {
     "label":"HI",
     "value":"322"
  },
  {
     "label":"CA",
     "value":"8356"
  },
  {
     "label":"MD",
     "value":"960"
  },
  {
     "label":"NJ",
     "value":"589"
  },
  {
     "label":"MI",
     "value":"1018"
  },
  {
     "label":"CO",
     "value":"1261"
  },
  {
     "label":"TX",
     "value":"2337"
  },
  {
     "label":"OH",
     "value":"974"
  },
  {
     "label":"MO",
     "value":"689"
  },
  {
     "label":"AL",
     "value":"358"
  },
  {
     "label":"NC",
     "value":"1149"
  },
  {
     "label":"OR",
     "value":"878"
  },
  {
     "label":"TN",
     "value":"661"
  },
  {
     "label":"GA",
     "value":"1191"
  },
  {
     "label":"IL",
     "value":"1227"
  },
  {
     "label":"NV",
     "value":"336"
  },
  {
     "label":"MN",
     "value":"1058"
  },
  {
     "label":"IN",
     "value":"616"
  },
  {
     "label":"OK",
     "value":"582"
  },
  {
     "label":"MA",
     "value":"1050"
  },
  {
     "label":"FL",
     "value":"1999"
  },
  {
     "label":"WI",
     "value":"728"
  },
  {
     "label":"NH",
     "value":"154"
  },
  {
     "label":"LA",
     "value":"212"
  },
  {
     "label":"RI",
     "value":"157"
  },
  {
     "label":"ID",
     "value":"147"
  },
  {
     "label":"IA",
     "value":"546"
  },
  {
     "label":"NE",
     "value":"238"
  },
  {
     "label":"ME",
     "value":"216"
  },
  {
     "label":"DC",
     "value":"198"
  },
  {
     "label":"PA",
     "value":"1016"
  },
  {
     "label":"ND",
     "value":"101"
  },
  {
     "label":"KY",
     "value":"280"
  },
  {
     "label":"KS",
     "value":"366"
  },
  {
     "label":"VT",
     "value":"264"
  },
  {
     "label":"WY",
     "value":"103"
  },
  {
     "label":"NM",
     "value":"189"
  },
  {
     "label":"MS",
     "value":"196"
  },
  {
     "label":"AR",
     "value":"215"
  },
  {
     "label":"AK",
     "value":"28"
  },
  {
     "label":"WV",
     "value":"142"
  },
  {
     "label":"SD",
     "value":"148"
  }
]